{
  "comments": [
    {
      "id": 0,
      "author": "Tristan",
      "content": "Lorem ipsum dolor sit amet"
    },
    {
      "id": 1,
      "author": "Amélie",
      "content": "Lorem ipsum dolor sit amet"
    },
    {
      "id": 2,
      "author": "Agathe",
      "content": "Lorem ipsum dolor sit amet"
    },
    {
      "id": 3,
      "author": "Tristan",
      "content": "Lorem ipsum dolor sit amet"
    }
  ],
  "contacts": [
    {
      "id": 0,
      "author": "Tristan"
    },
    {
      "id": 1,
      "author": "Amélie"
    },
    {
      "id": 2,
      "author": "Agathe"
    }
  ]
}