<svg xmlns="http://www.w3.org/2000/svg" viewBox="389 -265.3 841.9 595.3" xml:space="preserve">
	<style type="text/css">
		.st0{fill:#E74C3C;}
	</style>
	<path class="st0" d="M1055.3,31.2c0-32.5-40.7-63.3-103.1-82.4c14.4-63.6,8-114.2-20.2-130.4c-6.5-3.8-14.1-5.6-22.4-5.6v22.3
	c4.6,0,8.3,0.9,11.4,2.6c13.6,7.8,19.5,37.5,14.9,75.7c-1.1,9.4-2.9,19.3-5.1,29.4c-19.6-4.8-41-8.5-63.5-10.9
	c-13.5-18.5-27.5-35.3-41.6-50c32.6-30.3,63.2-46.9,84-46.9v-22.3c-27.5,0-63.5,19.6-99.9,53.6c-36.4-33.8-72.4-53.2-99.9-53.2
	v22.3c20.7,0,51.4,16.5,84,46.6c-14,14.7-28,31.4-41.3,49.9c-22.6,2.4-44,6.1-63.6,11c-2.3-10-4-19.7-5.2-29
	c-4.7-38.2,1.1-67.9,14.6-75.8c3-1.8,6.9-2.6,11.5-2.6v-22.3c-8.4,0-16,1.8-22.6,5.6c-28.1,16.2-34.4,66.7-19.9,130.1
	C605.2-31.9,564.7-1.2,564.7,31.2c0,32.5,40.7,63.3,103.1,82.4c-14.4,63.6-8,114.2,20.2,130.4c6.5,3.8,14.1,5.6,22.5,5.6
	c27.5,0,63.5-19.6,99.9-53.6c36.4,33.8,72.4,53.2,99.9,53.2c8.4,0,16-1.8,22.6-5.6c28.1-16.2,34.4-66.7,19.9-130.1
	C1014.8,94.4,1055.3,63.6,1055.3,31.2L1055.3,31.2z M925.1-35.5c-3.7,12.9-8.3,26.2-13.5,39.5c-4.1-8-8.4-16-13.1-24
	c-4.6-8-9.5-15.8-14.4-23.4C898.3-41.3,912-38.7,925.1-35.5L925.1-35.5z M879.3,71c-7.8,13.5-15.8,26.3-24.1,38.2
	c-14.9,1.3-30,2-45.2,2c-15.1,0-30.2-0.7-45-1.9c-8.3-11.9-16.4-24.6-24.2-38c-7.6-13.1-14.5-26.4-20.8-39.8
	c6.2-13.4,13.2-26.8,20.7-39.9c7.8-13.5,15.8-26.3,24.1-38.2c14.9-1.3,30-2,45.2-2c15.1,0,30.2,0.7,45,1.9
	c8.3,11.9,16.4,24.6,24.2,38c7.6,13.1,14.5,26.4,20.8,39.8C893.7,44.5,886.8,57.9,879.3,71L879.3,71z M911.6,58
	c5.4,13.4,10,26.8,13.8,39.8c-13.1,3.2-26.9,5.9-41.2,8c4.9-7.7,9.8-15.6,14.4-23.7C903.2,74.1,907.5,66,911.6,58L911.6,58z
	M810.2,164.7c-9.3-9.6-18.6-20.3-27.8-32c9,0.4,18.2,0.7,27.5,0.7c9.4,0,18.7-0.2,27.8-0.7C828.7,144.4,819.4,155.1,810.2,164.7z
	M735.8,105.8c-14.2-2.1-27.9-4.7-41-7.9c3.7-12.9,8.3-26.2,13.5-39.5c4.1,8,8.4,16,13.1,24S730.9,98.2,735.8,105.8z M809.7-102.3
	c9.3,9.6,18.6,20.3,27.8,32c-9-0.4-18.2-0.7-27.5-0.7c-9.4,0-18.7,0.2-27.8,0.7C791.2-82,800.5-92.7,809.7-102.3z M735.7-43.4
	c-4.9,7.7-9.8,15.6-14.4,23.7c-4.6,8-8.9,16-13,24c-5.4-13.4-10-26.8-13.8-39.8C707.6-38.6,721.4-41.3,735.7-43.4L735.7-43.4z
	M645.2,81.8c-35.4-15.1-58.3-34.9-58.3-50.6s22.9-35.6,58.3-50.6c8.6-3.7,18-7,27.7-10.1c5.7,19.6,13.2,40,22.5,60.9
	c-9.2,20.8-16.6,41.1-22.2,60.6C663.3,88.9,653.9,85.5,645.2,81.8L645.2,81.8z M699,224.7c-13.6-7.8-19.5-37.5-14.9-75.7
	c1.1-9.4,2.9-19.3,5.1-29.4c19.6,4.8,41,8.5,63.5,10.9c13.5,18.5,27.5,35.3,41.6,50c-32.6,30.3-63.2,46.9-84,46.9
	C705.8,227.3,702,226.4,699,224.7L699,224.7z M936.2,148.5c4.7,38.2-1.1,67.9-14.6,75.8c-3,1.8-6.9,2.6-11.5,2.6
	c-20.7,0-51.4-16.5-84-46.6c14-14.7,28-31.4,41.3-49.9c22.6-2.4,44-6.1,63.6-11C933.3,129.5,935.1,139.2,936.2,148.5z M974.7,81.8
	c-8.6,3.7-18,7-27.7,10.1c-5.7-19.6-13.2-40-22.5-60.9c9.2-20.8,16.6-41.1,22.2-60.6c9.9,3.1,19.3,6.5,28.1,10.2
	c35.4,15.1,58.3,34.9,58.3,50.6C1033,46.9,1010.1,66.8,974.7,81.8L974.7,81.8z"/>
	<path class="st0" d="M909.5-187.2"/>
	<path class="st0" d="M781.7,74.7v-85.9h27.8c10.5,0,17.4,0.4,20.6,1.3c4.9,1.3,9,4.1,12.4,8.4c3.3,4.3,5,9.9,5,16.7
		c0,5.3-1,9.7-2.9,13.3c-1.9,3.6-4.3,6.4-7.3,8.5c-3,2.1-5.9,3.4-9,4.1c-4.1,0.8-10.1,1.2-18,1.2h-11.3v32.4H781.7z M799.1,3.3
		v24.4h9.5c6.8,0,11.4-0.4,13.7-1.3c2.3-0.9,4.1-2.3,5.4-4.2c1.3-1.9,2-4.1,2-6.7c0-3.1-0.9-5.7-2.8-7.7c-1.8-2-4.2-3.3-7-3.8
		c-2.1-0.4-6.2-0.6-12.5-0.6H799.1z"/>
</svg>
